…
``` r
bike_rides %>% 
  group_by(month, member_casual) %>%
  summarise(Amount_of_rides = n()) 
```

    ## `summarise()` has grouped output by 'month'. You can override using the
    ## `.groups` argument.

    ## # A tibble: 24 × 3
    ## # Groups:   month [12]
    ##    month    member_casual Amount_of_rides
    ##    <ord>    <chr>                   <int>
    ##  1 December casual                  51494
    ##  2 December member                 172285
    ##  3 January  casual                  24339
    ##  4 January  member                 120149
    ##  5 February casual                  46957
    ##  6 February member                 175861
    ##  7 March    casual                  82218
    ##  8 March    member                 218967
    ##  9 April    casual                 131366
    ## 10 April    member                 282992
    ## # ℹ 14 more rows
…
